%YAML 1.1
%TAG !u! tag:unity3d.com,2011:
--- !u!114 &11400000
MonoBehaviour:
  m_ObjectHideFlags: 0
  m_CorrespondingSourceObject: {fileID: 0}
  m_PrefabInternal: {fileID: 0}
  m_GameObject: {fileID: 0}
  m_Enabled: 1
  m_EditorHideFlags: 0
  m_Script: {fileID: 11500000, guid: 2fbb2be698c926948831ff4e8f1d7162, type: 3}
  m_Name: TerrainResources
  m_EditorClassIdentifier: 
  m_resourcesID: 6e5e94a3-b3da-47a9-8315-893d5692fcfb
  m_name: Gaia Resource
  m_seaLevel: 38
  m_beachHeight: 2
  m_terrainHeight: 1000
  m_texturePrototypes:
  - m_name: Grass
    m_texture: {fileID: 2800000, guid: 3000fb6690c045a4ea77b70e03a2741f, type: 3}
    m_textureFileName: 
    m_normal: {fileID: 0}
    m_normalFileName: 
    m_sizeX: 25
    m_sizeY: 25
    m_offsetX: 0
    m_offsetY: 0
    m_metalic: 0
    m_smoothness: 0
    m_spawnCriteria:
    - m_name: Default
      m_checkType: 0
      m_virginTerrain: 0
      m_checkHeight: 0
      m_minHeight: 0
      m_maxHeight: 5000
      m_heightFitness:
        serializedVersion: 2
        m_Curve:
        - serializedVersion: 3
          time: -0.029167175
          value: 1
          inSlope: 0
          outSlope: 0
          tangentMode: 0
          weightedMode: 0
          inWeight: 0
          outWeight: 0
        - serializedVersion: 3
          time: 1
          value: 1
          inSlope: 0
          outSlope: 0
          tangentMode: 0
          weightedMode: 0
          inWeight: 0
          outWeight: 0
        m_PreInfinity: 2
        m_PostInfinity: 2
        m_RotationOrder: 0
      m_checkSlope: 1
      m_minSlope: 0
      m_maxSlope: 20
      m_slopeFitness:
        serializedVersion: 2
        m_Curve:
        - serializedVersion: 3
          time: 0
          value: 1
          inSlope: 0
          outSlope: 0
          tangentMode: 34
          weightedMode: 0
          inWeight: 0
          outWeight: 0
        - serializedVersion: 3
          time: 1
          value: 1
          inSlope: 0
          outSlope: 0
          tangentMode: 34
          weightedMode: 0
          inWeight: 0
          outWeight: 0
        m_PreInfinity: 2
        m_PostInfinity: 2
        m_RotationOrder: 0
      m_checkProximity: 0
      m_proximityTag: 
      m_minProximity: 0
      m_maxProximity: 0
      m_proximityFitness:
        serializedVersion: 2
        m_Curve: []
        m_PreInfinity: 0
        m_PostInfinity: 0
        m_RotationOrder: 0
      m_checkTexture: 0
      m_matchingTextures: 
      m_isActive: 1
    m_spawnExtensions: []
  - m_name: Wall
    m_texture: {fileID: 2800000, guid: 2fa1a2b4a4b68694e90fe1c0b537a27d, type: 3}
    m_textureFileName: 
    m_normal: {fileID: 0}
    m_normalFileName: 
    m_sizeX: 25
    m_sizeY: 25
    m_offsetX: 0
    m_offsetY: 0
    m_metalic: 0
    m_smoothness: 0
    m_spawnCriteria:
    - m_name: Slope
      m_checkType: 0
      m_virginTerrain: 0
      m_checkHeight: 0
      m_minHeight: 0
      m_maxHeight: 0
      m_heightFitness:
        serializedVersion: 2
        m_Curve: []
        m_PreInfinity: 0
        m_PostInfinity: 0
        m_RotationOrder: 0
      m_checkSlope: 1
      m_minSlope: 40
      m_maxSlope: 90
      m_slopeFitness:
        serializedVersion: 2
        m_Curve:
        - serializedVersion: 3
          time: 0
          value: 1
          inSlope: 0
          outSlope: 0
          tangentMode: 34
          weightedMode: 0
          inWeight: 0
          outWeight: 0
        - serializedVersion: 3
          time: 1
          value: 1
          inSlope: 0
          outSlope: 0
          tangentMode: 34
          weightedMode: 0
          inWeight: 0
          outWeight: 0
        m_PreInfinity: 2
        m_PostInfinity: 2
        m_RotationOrder: 0
      m_checkProximity: 0
      m_proximityTag: 
      m_minProximity: 0
      m_maxProximity: 0
      m_proximityFitness:
        serializedVersion: 2
        m_Curve: []
        m_PreInfinity: 0
        m_PostInfinity: 0
        m_RotationOrder: 0
      m_checkTexture: 0
      m_matchingTextures: 
      m_isActive: 1
    m_spawnExtensions: []
  - m_name: Dirt
    m_texture: {fileID: 2800000, guid: 9805bdc8af3f2f145ba344a9b4fef482, type: 3}
    m_textureFileName: 
    m_normal: {fileID: 0}
    m_normalFileName: 
    m_sizeX: 25
    m_sizeY: 25
    m_offsetX: 0
    m_offsetY: 0
    m_metalic: 0
    m_smoothness: 0
    m_spawnCriteria:
    - m_name: Slope
      m_checkType: 0
      m_virginTerrain: 0
      m_checkHeight: 0
      m_minHeight: 0
      m_maxHeight: 0
      m_heightFitness:
        serializedVersion: 2
        m_Curve: []
        m_PreInfinity: 0
        m_PostInfinity: 0
        m_RotationOrder: 0
      m_checkSlope: 1
      m_minSlope: 20
      m_maxSlope: 40
      m_slopeFitness:
        serializedVersion: 2
        m_Curve:
        - serializedVersion: 3
          time: 0
          value: 1
          inSlope: 0
          outSlope: 0
          tangentMode: 34
          weightedMode: 0
          inWeight: 0
          outWeight: 0
        - serializedVersion: 3
          time: 1
          value: 1
          inSlope: 0
          outSlope: 0
          tangentMode: 34
          weightedMode: 0
          inWeight: 0
          outWeight: 0
        m_PreInfinity: 2
        m_PostInfinity: 2
        m_RotationOrder: 0
      m_checkProximity: 0
      m_proximityTag: 
      m_minProximity: 0
      m_maxProximity: 0
      m_proximityFitness:
        serializedVersion: 2
        m_Curve: []
        m_PreInfinity: 0
        m_PostInfinity: 0
        m_RotationOrder: 0
      m_checkTexture: 0
      m_matchingTextures: 
      m_isActive: 1
    m_spawnExtensions: []
  m_detailPrototypes:
  - m_name: Grass 1 Wide
    m_renderMode: 2
    m_detailProtoype: {fileID: 0}
    m_detailPrototypeFileName: 
    m_detailTexture: {fileID: 2800000, guid: 50651cc2cfd3b914189649540964a551, type: 3}
    m_detailTextureFileName: Grass 1 Wide.psd
    m_minWidth: 2.5
    m_maxWidth: 3.7
    m_minHeight: 1
    m_maxHeight: 1.5
    m_noiseSpread: 1
    m_bendFactor: 0.1
    m_healthyColour: {r: 1, g: 1, b: 1, a: 1}
    m_dryColour: {r: 0.64705884, g: 0.64705884, b: 0.64705884, a: 1}
    m_dna:
      m_width: 3.7
      m_height: 1.5
      m_boundsRadius: 3.7
      m_seedThrow: 11.1
      m_minScale: 0.1
      m_maxScale: 1
      m_rndScaleInfluence: 0
      m_extParam: 
      m_protoIdx: 0
    m_spawnCriteria:
    - m_name: 
      m_checkType: 0
      m_virginTerrain: 1
      m_checkHeight: 1
      m_minHeight: 1
      m_maxHeight: 962
      m_heightFitness:
        serializedVersion: 2
        m_Curve:
        - serializedVersion: 3
          time: 0
          value: 0
          inSlope: 0
          outSlope: 0
          tangentMode: 0
          weightedMode: 0
          inWeight: 0.33333334
          outWeight: 0.33333334
        - serializedVersion: 3
          time: 0.011027575
          value: 0.9999949
          inSlope: 0
          outSlope: 0
          tangentMode: 0
          weightedMode: 0
          inWeight: 0.33333334
          outWeight: 0.33333334
        - serializedVersion: 3
          time: 1
          value: 0
          inSlope: 0
          outSlope: 0
          tangentMode: 0
          weightedMode: 0
          inWeight: 0.33333334
          outWeight: 0.33333334
        m_PreInfinity: 2
        m_PostInfinity: 2
        m_RotationOrder: 4
      m_checkSlope: 1
      m_minSlope: 0
      m_maxSlope: 20
      m_slopeFitness:
        serializedVersion: 2
        m_Curve:
        - serializedVersion: 3
          time: 0.0018450185
          value: 0.9965034
          inSlope: 0
          outSlope: 0
          tangentMode: 0
          weightedMode: 0
          inWeight: 0.33333334
          outWeight: 0.33333334
        - serializedVersion: 3
          time: 0.1
          value: 1
          inSlope: 0
          outSlope: 0
          tangentMode: 0
          weightedMode: 0
          inWeight: 0.33333334
          outWeight: 0.33333334
        - serializedVersion: 3
          time: 1
          value: 0
          inSlope: 0
          outSlope: 0
          tangentMode: 0
          weightedMode: 0
          inWeight: 0.33333334
          outWeight: 0.33333334
        m_PreInfinity: 2
        m_PostInfinity: 2
        m_RotationOrder: 4
      m_checkProximity: 0
      m_proximityTag: 
      m_minProximity: 0
      m_maxProximity: 100
      m_proximityFitness:
        serializedVersion: 2
        m_Curve:
        - serializedVersion: 3
          time: 0
          value: 1
          inSlope: 0
          outSlope: 0
          tangentMode: 0
          weightedMode: 0
          inWeight: 0.33333334
          outWeight: 0.33333334
        - serializedVersion: 3
          time: 0.3
          value: 0.2
          inSlope: 0
          outSlope: 0
          tangentMode: 0
          weightedMode: 0
          inWeight: 0.33333334
          outWeight: 0.33333334
        - serializedVersion: 3
          time: 1
          value: 0
          inSlope: 0
          outSlope: 0
          tangentMode: 0
          weightedMode: 0
          inWeight: 0.33333334
          outWeight: 0.33333334
        m_PreInfinity: 2
        m_PostInfinity: 2
        m_RotationOrder: 4
      m_checkTexture: 0
      m_matchingTextures: '!3'
      m_isActive: 1
    m_spawnExtensions: []
  - m_name: Grass 1 Narrow
    m_renderMode: 2
    m_detailProtoype: {fileID: 0}
    m_detailPrototypeFileName: 
    m_detailTexture: {fileID: 2800000, guid: c18b1eca88e9a3846b190c40a26e9e3e, type: 3}
    m_detailTextureFileName: Grass 1 Narrow.psd
    m_minWidth: 0.8
    m_maxWidth: 1.5
    m_minHeight: 1.2
    m_maxHeight: 1.9
    m_noiseSpread: 1
    m_bendFactor: 0.1
    m_healthyColour: {r: 1, g: 1, b: 1, a: 1}
    m_dryColour: {r: 0.6985294, g: 0.6985294, b: 0.6985294, a: 1}
    m_dna:
      m_width: 1.5
      m_height: 1.9
      m_boundsRadius: 1.5
      m_seedThrow: 5.7
      m_minScale: 0.1
      m_maxScale: 1
      m_rndScaleInfluence: 0
      m_extParam: 
      m_protoIdx: 1
    m_spawnCriteria:
    - m_name: 
      m_checkType: 0
      m_virginTerrain: 1
      m_checkHeight: 1
      m_minHeight: 1
      m_maxHeight: 962
      m_heightFitness:
        serializedVersion: 2
        m_Curve:
        - serializedVersion: 3
          time: 0
          value: 0
          inSlope: 0
          outSlope: 0
          tangentMode: 0
          weightedMode: 0
          inWeight: 0.33333334
          outWeight: 0.33333334
        - serializedVersion: 3
          time: 0.011027575
          value: 0.9999949
          inSlope: 0
          outSlope: 0
          tangentMode: 0
          weightedMode: 0
          inWeight: 0.33333334
          outWeight: 0.33333334
        - serializedVersion: 3
          time: 1
          value: 0
          inSlope: 0
          outSlope: 0
          tangentMode: 0
          weightedMode: 0
          inWeight: 0.33333334
          outWeight: 0.33333334
        m_PreInfinity: 2
        m_PostInfinity: 2
        m_RotationOrder: 4
      m_checkSlope: 1
      m_minSlope: 0
      m_maxSlope: 45
      m_slopeFitness:
        serializedVersion: 2
        m_Curve:
        - serializedVersion: 3
          time: 0
          value: 0
          inSlope: 0
          outSlope: 0
          tangentMode: 0
          weightedMode: 0
          inWeight: 0.33333334
          outWeight: 0.33333334
        - serializedVersion: 3
          time: 0.048339482
          value: 1
          inSlope: 0
          outSlope: 0
          tangentMode: 0
          weightedMode: 0
          inWeight: 0.33333334
          outWeight: 0.33333334
        - serializedVersion: 3
          time: 0.8214434
          value: 0.8345053
          inSlope: -0.16761757
          outSlope: -1.5443563
          tangentMode: 1
          weightedMode: 0
          inWeight: 0.33333334
          outWeight: 0.33333334
        - serializedVersion: 3
          time: 1
          value: 0
          inSlope: 0
          outSlope: 0
          tangentMode: 0
          weightedMode: 0
          inWeight: 0.33333334
          outWeight: 0.33333334
        m_PreInfinity: 2
        m_PostInfinity: 2
        m_RotationOrder: 4
      m_checkProximity: 0
      m_proximityTag: 
      m_minProximity: 0
      m_maxProximity: 100
      m_proximityFitness:
        serializedVersion: 2
        m_Curve:
        - serializedVersion: 3
          time: 0
          value: 1
          inSlope: 0
          outSlope: 0
          tangentMode: 0
          weightedMode: 0
          inWeight: 0.33333334
          outWeight: 0.33333334
        - serializedVersion: 3
          time: 0.3
          value: 0.2
          inSlope: 0
          outSlope: 0
          tangentMode: 0
          weightedMode: 0
          inWeight: 0.33333334
          outWeight: 0.33333334
        - serializedVersion: 3
          time: 1
          value: 0
          inSlope: 0
          outSlope: 0
          tangentMode: 0
          weightedMode: 0
          inWeight: 0.33333334
          outWeight: 0.33333334
        m_PreInfinity: 2
        m_PostInfinity: 2
        m_RotationOrder: 4
      m_checkTexture: 0
      m_matchingTextures: '!3'
      m_isActive: 1
    m_spawnExtensions: []
  - m_name: Grass 2
    m_renderMode: 2
    m_detailProtoype: {fileID: 0}
    m_detailPrototypeFileName: 
    m_detailTexture: {fileID: 2800000, guid: d1642c0bdba30914aa56dd0dd68120d6, type: 3}
    m_detailTextureFileName: Grass 2.psd
    m_minWidth: 0.9
    m_maxWidth: 1.5
    m_minHeight: 0.8
    m_maxHeight: 1.3
    m_noiseSpread: 1
    m_bendFactor: 0.1
    m_healthyColour: {r: 1, g: 1, b: 1, a: 1}
    m_dryColour: {r: 0.6838235, g: 0.6838235, b: 0.6838235, a: 1}
    m_dna:
      m_width: 1.5
      m_height: 1.3
      m_boundsRadius: 1.5
      m_seedThrow: 4.5
      m_minScale: 0.1
      m_maxScale: 1
      m_rndScaleInfluence: 0
      m_extParam: 
      m_protoIdx: 2
    m_spawnCriteria:
    - m_name: 
      m_checkType: 0
      m_virginTerrain: 1
      m_checkHeight: 1
      m_minHeight: 1
      m_maxHeight: 962
      m_heightFitness:
        serializedVersion: 2
        m_Curve:
        - serializedVersion: 3
          time: 0
          value: 0
          inSlope: 0
          outSlope: 0
          tangentMode: 0
          weightedMode: 0
          inWeight: 0.33333334
          outWeight: 0.33333334
        - serializedVersion: 3
          time: 0.0114391185
          value: 1.0068952
          inSlope: 0
          outSlope: 0
          tangentMode: 0
          weightedMode: 0
          inWeight: 0.33333334
          outWeight: 0.33333334
        - serializedVersion: 3
          time: 1
          value: 0
          inSlope: 0
          outSlope: 0
          tangentMode: 0
          weightedMode: 0
          inWeight: 0.33333334
          outWeight: 0.33333334
        m_PreInfinity: 2
        m_PostInfinity: 2
        m_RotationOrder: 4
      m_checkSlope: 1
      m_minSlope: 0
      m_maxSlope: 30
      m_slopeFitness:
        serializedVersion: 2
        m_Curve:
        - serializedVersion: 3
          time: 0
          value: 0
          inSlope: 0
          outSlope: 0
          tangentMode: 0
          weightedMode: 0
          inWeight: 0.33333334
          outWeight: 0.33333334
        - serializedVersion: 3
          time: 0.016974173
          value: 1.0033498
          inSlope: 0
          outSlope: 0
          tangentMode: 0
          weightedMode: 0
          inWeight: 0.33333334
          outWeight: 0.33333334
        - serializedVersion: 3
          time: 0.75949615
          value: 0.7607432
          inSlope: -0.62223196
          outSlope: -1.5839934
          tangentMode: 1
          weightedMode: 0
          inWeight: 0.33333334
          outWeight: 0.33333334
        - serializedVersion: 3
          time: 1
          value: 0
          inSlope: 0
          outSlope: 0
          tangentMode: 0
          weightedMode: 0
          inWeight: 0.33333334
          outWeight: 0.33333334
        m_PreInfinity: 2
        m_PostInfinity: 2
        m_RotationOrder: 4
      m_checkProximity: 0
      m_proximityTag: 
      m_minProximity: 0
      m_maxProximity: 100
      m_proximityFitness:
        serializedVersion: 2
        m_Curve:
        - serializedVersion: 3
          time: 0
          value: 1
          inSlope: 0
          outSlope: 0
          tangentMode: 0
          weightedMode: 0
          inWeight: 0.33333334
          outWeight: 0.33333334
        - serializedVersion: 3
          time: 0.3
          value: 0.2
          inSlope: 0
          outSlope: 0
          tangentMode: 0
          weightedMode: 0
          inWeight: 0.33333334
          outWeight: 0.33333334
        - serializedVersion: 3
          time: 1
          value: 0
          inSlope: 0
          outSlope: 0
          tangentMode: 0
          weightedMode: 0
          inWeight: 0.33333334
          outWeight: 0.33333334
        m_PreInfinity: 2
        m_PostInfinity: 2
        m_RotationOrder: 4
      m_checkTexture: 0
      m_matchingTextures: '!3'
      m_isActive: 1
    m_spawnExtensions: []
  - m_name: Grass 3
    m_renderMode: 2
    m_detailProtoype: {fileID: 0}
    m_detailPrototypeFileName: 
    m_detailTexture: {fileID: 2800000, guid: 93ecdd870828bf54cabdffb380cf757d, type: 3}
    m_detailTextureFileName: Grass 3.psd
    m_minWidth: 0.6
    m_maxWidth: 1.5
    m_minHeight: 0.6
    m_maxHeight: 1.5
    m_noiseSpread: 1
    m_bendFactor: 0.1
    m_healthyColour: {r: 1, g: 1, b: 1, a: 1}
    m_dryColour: {r: 0.7647059, g: 0.7647059, b: 0.7647059, a: 1}
    m_dna:
      m_width: 1.5
      m_height: 1.5
      m_boundsRadius: 1.5
      m_seedThrow: 4.5
      m_minScale: 0.1
      m_maxScale: 1
      m_rndScaleInfluence: 0
      m_extParam: 
      m_protoIdx: 3
    m_spawnCriteria:
    - m_name: 
      m_checkType: 0
      m_virginTerrain: 1
      m_checkHeight: 1
      m_minHeight: 1
      m_maxHeight: 962
      m_heightFitness:
        serializedVersion: 2
        m_Curve:
        - serializedVersion: 3
          time: 0
          value: 0.9999998
          inSlope: 0
          outSlope: 0
          tangentMode: 0
          weightedMode: 0
          inWeight: 0.33333334
          outWeight: 0.33333334
        - serializedVersion: 3
          time: 1
          value: -0.001267314
          inSlope: 0
          outSlope: 0
          tangentMode: 0
          weightedMode: 0
          inWeight: 0.33333334
          outWeight: 0.33333334
        m_PreInfinity: 2
        m_PostInfinity: 2
        m_RotationOrder: 4
      m_checkSlope: 1
      m_minSlope: 0
      m_maxSlope: 34
      m_slopeFitness:
        serializedVersion: 2
        m_Curve:
        - serializedVersion: 3
          time: 0
          value: 0
          inSlope: 0
          outSlope: 0
          tangentMode: 0
          weightedMode: 0
          inWeight: 0.33333334
          outWeight: 0.33333334
        - serializedVersion: 3
          time: 0.046494465
          value: 1
          inSlope: 0
          outSlope: 0
          tangentMode: 0
          weightedMode: 0
          inWeight: 0.33333334
          outWeight: 0.33333334
        - serializedVersion: 3
          time: 1
          value: 0
          inSlope: 0
          outSlope: 0
          tangentMode: 0
          weightedMode: 0
          inWeight: 0.33333334
          outWeight: 0.33333334
        m_PreInfinity: 2
        m_PostInfinity: 2
        m_RotationOrder: 4
      m_checkProximity: 0
      m_proximityTag: 
      m_minProximity: 0
      m_maxProximity: 100
      m_proximityFitness:
        serializedVersion: 2
        m_Curve:
        - serializedVersion: 3
          time: 0
          value: 1
          inSlope: 0
          outSlope: 0
          tangentMode: 0
          weightedMode: 0
          inWeight: 0.33333334
          outWeight: 0.33333334
        - serializedVersion: 3
          time: 0.3
          value: 0.2
          inSlope: 0
          outSlope: 0
          tangentMode: 0
          weightedMode: 0
          inWeight: 0.33333334
          outWeight: 0.33333334
        - serializedVersion: 3
          time: 1
          value: 0
          inSlope: 0
          outSlope: 0
          tangentMode: 0
          weightedMode: 0
          inWeight: 0.33333334
          outWeight: 0.33333334
        m_PreInfinity: 2
        m_PostInfinity: 2
        m_RotationOrder: 4
      m_checkTexture: 0
      m_matchingTextures: '!3'
      m_isActive: 1
    m_spawnExtensions: []
  - m_name: Fern
    m_renderMode: 2
    m_detailProtoype: {fileID: 0}
    m_detailPrototypeFileName: 
    m_detailTexture: {fileID: 2800000, guid: 0ed1b9f658381ad4db24b7ed34e9206f, type: 3}
    m_detailTextureFileName: Fern.psd
    m_minWidth: 0.7
    m_maxWidth: 1.2
    m_minHeight: 0.8
    m_maxHeight: 1.4
    m_noiseSpread: 1
    m_bendFactor: 0.1
    m_healthyColour: {r: 0.97794116, g: 0.97794116, b: 0.97794116, a: 1}
    m_dryColour: {r: 0.7058823, g: 0.7058823, b: 0.7058823, a: 1}
    m_dna:
      m_width: 1.2
      m_height: 1.4
      m_boundsRadius: 1.2
      m_seedThrow: 4.2
      m_minScale: 0.1
      m_maxScale: 1
      m_rndScaleInfluence: 0
      m_extParam: 
      m_protoIdx: 4
    m_spawnCriteria:
    - m_name: 
      m_checkType: 0
      m_virginTerrain: 1
      m_checkHeight: 1
      m_minHeight: -1
      m_maxHeight: 962
      m_heightFitness:
        serializedVersion: 2
        m_Curve:
        - serializedVersion: 3
          time: 0
          value: 0.9999998
          inSlope: 0
          outSlope: 0
          tangentMode: 0
          weightedMode: 0
          inWeight: 0.33333334
          outWeight: 0.33333334
        - serializedVersion: 3
          time: 1
          value: -0.001267314
          inSlope: 0
          outSlope: 0
          tangentMode: 0
          weightedMode: 0
          inWeight: 0.33333334
          outWeight: 0.33333334
        m_PreInfinity: 2
        m_PostInfinity: 2
        m_RotationOrder: 4
      m_checkSlope: 1
      m_minSlope: 0
      m_maxSlope: 35
      m_slopeFitness:
        serializedVersion: 2
        m_Curve:
        - serializedVersion: 3
          time: 0
          value: 0.9965034
          inSlope: 0
          outSlope: 0
          tangentMode: 0
          weightedMode: 0
          inWeight: 0.33333334
          outWeight: 0.33333334
        - serializedVersion: 3
          time: 0.039114393
          value: 1
          inSlope: 0
          outSlope: 0
          tangentMode: 0
          weightedMode: 0
          inWeight: 0.33333334
          outWeight: 0.33333334
        - serializedVersion: 3
          time: 1
          value: 0
          inSlope: 0
          outSlope: 0
          tangentMode: 0
          weightedMode: 0
          inWeight: 0.33333334
          outWeight: 0.33333334
        m_PreInfinity: 2
        m_PostInfinity: 2
        m_RotationOrder: 4
      m_checkProximity: 0
      m_proximityTag: 
      m_minProximity: 0
      m_maxProximity: 100
      m_proximityFitness:
        serializedVersion: 2
        m_Curve:
        - serializedVersion: 3
          time: 0
          value: 1
          inSlope: 0
          outSlope: 0
          tangentMode: 0
          weightedMode: 0
          inWeight: 0.33333334
          outWeight: 0.33333334
        - serializedVersion: 3
          time: 0.3
          value: 0.2
          inSlope: 0
          outSlope: 0
          tangentMode: 0
          weightedMode: 0
          inWeight: 0.33333334
          outWeight: 0.33333334
        - serializedVersion: 3
          time: 1
          value: 0
          inSlope: 0
          outSlope: 0
          tangentMode: 0
          weightedMode: 0
          inWeight: 0.33333334
          outWeight: 0.33333334
        m_PreInfinity: 2
        m_PostInfinity: 2
        m_RotationOrder: 4
      m_checkTexture: 0
      m_matchingTextures: '!3'
      m_isActive: 1
    m_spawnExtensions: []
  - m_name: Flowers Purple
    m_renderMode: 2
    m_detailProtoype: {fileID: 0}
    m_detailPrototypeFileName: 
    m_detailTexture: {fileID: 2800000, guid: 50651cc2cfd3b914189649540964a551, type: 3}
    m_detailTextureFileName: Flowers Purple.psd
    m_minWidth: 0.5
    m_maxWidth: 1
    m_minHeight: 0.6
    m_maxHeight: 1.2
    m_noiseSpread: 1
    m_bendFactor: 0.1
    m_healthyColour: {r: 1, g: 1, b: 1, a: 1}
    m_dryColour: {r: 0.7352941, g: 0.7352941, b: 0.7352941, a: 1}
    m_dna:
      m_width: 1
      m_height: 1.2
      m_boundsRadius: 1
      m_seedThrow: 3.6000001
      m_minScale: 0.1
      m_maxScale: 1
      m_rndScaleInfluence: 0
      m_extParam: 
      m_protoIdx: 5
    m_spawnCriteria:
    - m_name: 
      m_checkType: 0
      m_virginTerrain: 1
      m_checkHeight: 1
      m_minHeight: 2
      m_maxHeight: 962
      m_heightFitness:
        serializedVersion: 2
        m_Curve:
        - serializedVersion: 3
          time: 0
          value: 0
          inSlope: 0
          outSlope: 0
          tangentMode: 0
          weightedMode: 0
          inWeight: 0.33333334
          outWeight: 0.33333334
        - serializedVersion: 3
          time: 0.011439117
          value: 1.0070052
          inSlope: 0
          outSlope: 0
          tangentMode: 0
          weightedMode: 0
          inWeight: 0.33333334
          outWeight: 0.33333334
        - serializedVersion: 3
          time: 1
          value: 0
          inSlope: 0
          outSlope: 0
          tangentMode: 0
          weightedMode: 0
          inWeight: 0.33333334
          outWeight: 0.33333334
        m_PreInfinity: 2
        m_PostInfinity: 2
        m_RotationOrder: 4
      m_checkSlope: 1
      m_minSlope: 0
      m_maxSlope: 36
      m_slopeFitness:
        serializedVersion: 2
        m_Curve:
        - serializedVersion: 3
          time: 0
          value: 0
          inSlope: 0
          outSlope: 0
          tangentMode: 0
          weightedMode: 0
          inWeight: 0.33333334
          outWeight: 0.33333334
        - serializedVersion: 3
          time: 0.04464945
          value: 0.9999878
          inSlope: 0
          outSlope: 0
          tangentMode: 0
          weightedMode: 0
          inWeight: 0.33333334
          outWeight: 0.33333334
        - serializedVersion: 3
          time: 1
          value: 0
          inSlope: 0
          outSlope: 0
          tangentMode: 0
          weightedMode: 0
          inWeight: 0.33333334
          outWeight: 0.33333334
        m_PreInfinity: 2
        m_PostInfinity: 2
        m_RotationOrder: 4
      m_checkProximity: 0
      m_proximityTag: 
      m_minProximity: 0
      m_maxProximity: 100
      m_proximityFitness:
        serializedVersion: 2
        m_Curve:
        - serializedVersion: 3
          time: 0
          value: 1
          inSlope: 0
          outSlope: 0
          tangentMode: 0
          weightedMode: 0
          inWeight: 0.33333334
          outWeight: 0.33333334
        - serializedVersion: 3
          time: 0.3
          value: 0.2
          inSlope: 0
          outSlope: 0
          tangentMode: 0
          weightedMode: 0
          inWeight: 0.33333334
          outWeight: 0.33333334
        - serializedVersion: 3
          time: 1
          value: 0
          inSlope: 0
          outSlope: 0
          tangentMode: 0
          weightedMode: 0
          inWeight: 0.33333334
          outWeight: 0.33333334
        m_PreInfinity: 2
        m_PostInfinity: 2
        m_RotationOrder: 4
      m_checkTexture: 0
      m_matchingTextures: '!3'
      m_isActive: 1
    m_spawnExtensions: []
  - m_name: Flowers Red
    m_renderMode: 2
    m_detailProtoype: {fileID: 0}
    m_detailPrototypeFileName: 
    m_detailTexture: {fileID: 2800000, guid: d1642c0bdba30914aa56dd0dd68120d6, type: 3}
    m_detailTextureFileName: Flowers Red.psd
    m_minWidth: 0.5
    m_maxWidth: 1
    m_minHeight: 0.7
    m_maxHeight: 1.4
    m_noiseSpread: 1
    m_bendFactor: 0.1
    m_healthyColour: {r: 1, g: 1, b: 1, a: 1}
    m_dryColour: {r: 0.7352941, g: 0.7352941, b: 0.7352941, a: 1}
    m_dna:
      m_width: 1
      m_height: 1.4
      m_boundsRadius: 1
      m_seedThrow: 4.2
      m_minScale: 0.1
      m_maxScale: 1
      m_rndScaleInfluence: 0
      m_extParam: 
      m_protoIdx: 6
    m_spawnCriteria:
    - m_name: 
      m_checkType: 0
      m_virginTerrain: 1
      m_checkHeight: 1
      m_minHeight: 2
      m_maxHeight: 962
      m_heightFitness:
        serializedVersion: 2
        m_Curve:
        - serializedVersion: 3
          time: 0
          value: 0
          inSlope: 0
          outSlope: 0
          tangentMode: 0
          weightedMode: 0
          inWeight: 0.33333334
          outWeight: 0.33333334
        - serializedVersion: 3
          time: 0.024169743
          value: 1.0104895
          inSlope: 0
          outSlope: 0
          tangentMode: 0
          weightedMode: 0
          inWeight: 0.33333334
          outWeight: 0.33333334
        - serializedVersion: 3
          time: 1
          value: 0
          inSlope: 0
          outSlope: 0
          tangentMode: 0
          weightedMode: 0
          inWeight: 0.33333334
          outWeight: 0.33333334
        m_PreInfinity: 2
        m_PostInfinity: 2
        m_RotationOrder: 4
      m_checkSlope: 1
      m_minSlope: 1.5390637
      m_maxSlope: 40.76444
      m_slopeFitness:
        serializedVersion: 2
        m_Curve:
        - serializedVersion: 3
          time: 0
          value: 0
          inSlope: 0
          outSlope: 0
          tangentMode: 0
          weightedMode: 0
          inWeight: 0.33333334
          outWeight: 0.33333334
        - serializedVersion: 3
          time: 0.05
          value: 1
          inSlope: 0
          outSlope: 0
          tangentMode: 0
          weightedMode: 0
          inWeight: 0.33333334
          outWeight: 0.33333334
        - serializedVersion: 3
          time: 1
          value: 0
          inSlope: 0
          outSlope: 0
          tangentMode: 0
          weightedMode: 0
          inWeight: 0.33333334
          outWeight: 0.33333334
        m_PreInfinity: 2
        m_PostInfinity: 2
        m_RotationOrder: 4
      m_checkProximity: 0
      m_proximityTag: 
      m_minProximity: 0
      m_maxProximity: 100
      m_proximityFitness:
        serializedVersion: 2
        m_Curve:
        - serializedVersion: 3
          time: 0
          value: 1
          inSlope: 0
          outSlope: 0
          tangentMode: 0
          weightedMode: 0
          inWeight: 0.33333334
          outWeight: 0.33333334
        - serializedVersion: 3
          time: 0.3
          value: 0.2
          inSlope: 0
          outSlope: 0
          tangentMode: 0
          weightedMode: 0
          inWeight: 0.33333334
          outWeight: 0.33333334
        - serializedVersion: 3
          time: 1
          value: 0
          inSlope: 0
          outSlope: 0
          tangentMode: 0
          weightedMode: 0
          inWeight: 0.33333334
          outWeight: 0.33333334
        m_PreInfinity: 2
        m_PostInfinity: 2
        m_RotationOrder: 4
      m_checkTexture: 0
      m_matchingTextures: '!3'
      m_isActive: 1
    m_spawnExtensions: []
  m_treePrototypes:
  - m_name: Tree 1
    m_desktopPrefab: {fileID: 1834797124392786, guid: 92eb4740079f1b0428bed538e4425cd4,
      type: 2}
    m_desktopPrefabFileName: Broadleaf_Desktop.spm
    m_mobilePrefab: {fileID: 1834797124392786, guid: 92eb4740079f1b0428bed538e4425cd4,
      type: 2}
    m_mobilePrefabFileName: Broadleaf_Desktop.spm
    m_bendFactor: 0
    m_healthyColour: {r: 1, g: 1, b: 1, a: 1}
    m_dryColour: {r: 1, g: 1, b: 1, a: 1}
    m_dna:
      m_width: 25.074068
      m_height: 23.399921
      m_boundsRadius: 6.268517
      m_seedThrow: 35.099884
      m_minScale: 0.5
      m_maxScale: 1.1
      m_rndScaleInfluence: 0
      m_extParam: 
      m_protoIdx: 0
    m_spawnCriteria:
    - m_name: 
      m_checkType: 1
      m_virginTerrain: 1
      m_checkHeight: 1
      m_minHeight: 1
      m_maxHeight: 962
      m_heightFitness:
        serializedVersion: 2
        m_Curve:
        - serializedVersion: 3
          time: 0
          value: 1
          inSlope: 0
          outSlope: 0
          tangentMode: 0
          weightedMode: 0
          inWeight: 0.33333334
          outWeight: 0.33333334
        - serializedVersion: 3
          time: 1
          value: 0
          inSlope: 0
          outSlope: 0
          tangentMode: 0
          weightedMode: 0
          inWeight: 0.33333334
          outWeight: 0.33333334
        m_PreInfinity: 2
        m_PostInfinity: 2
        m_RotationOrder: 4
      m_checkSlope: 1
      m_minSlope: 0
      m_maxSlope: 25
      m_slopeFitness:
        serializedVersion: 2
        m_Curve:
        - serializedVersion: 3
          time: 0
          value: 1
          inSlope: 0
          outSlope: 0
          tangentMode: 0
          weightedMode: 0
          inWeight: 0.33333334
          outWeight: 0.33333334
        - serializedVersion: 3
          time: 1
          value: 0
          inSlope: 0
          outSlope: 0
          tangentMode: 0
          weightedMode: 0
          inWeight: 0.33333334
          outWeight: 0.33333334
        m_PreInfinity: 2
        m_PostInfinity: 2
        m_RotationOrder: 4
      m_checkProximity: 0
      m_proximityTag: 
      m_minProximity: 0
      m_maxProximity: 100
      m_proximityFitness:
        serializedVersion: 2
        m_Curve:
        - serializedVersion: 3
          time: 0
          value: 1
          inSlope: 0
          outSlope: 0
          tangentMode: 0
          weightedMode: 0
          inWeight: 0.33333334
          outWeight: 0.33333334
        - serializedVersion: 3
          time: 0.3
          value: 0.2
          inSlope: 0
          outSlope: 0
          tangentMode: 0
          weightedMode: 0
          inWeight: 0.33333334
          outWeight: 0.33333334
        - serializedVersion: 3
          time: 1
          value: 0
          inSlope: 0
          outSlope: 0
          tangentMode: 0
          weightedMode: 0
          inWeight: 0.33333334
          outWeight: 0.33333334
        m_PreInfinity: 2
        m_PostInfinity: 2
        m_RotationOrder: 4
      m_checkTexture: 0
      m_matchingTextures: '!3'
      m_isActive: 1
    m_spawnExtensions: []
  - m_name: Tree 2
    m_desktopPrefab: {fileID: 1449508203512976, guid: a667114e8187d454d84ce94bbc72e878,
      type: 2}
    m_desktopPrefabFileName: Conifer_Desktop.spm
    m_mobilePrefab: {fileID: 1449508203512976, guid: a667114e8187d454d84ce94bbc72e878,
      type: 2}
    m_mobilePrefabFileName: Conifer_Desktop.spm
    m_bendFactor: 0
    m_healthyColour: {r: 1, g: 1, b: 1, a: 1}
    m_dryColour: {r: 1, g: 1, b: 1, a: 1}
    m_dna:
      m_width: 13.559455
      m_height: 30.658916
      m_boundsRadius: 3.3898637
      m_seedThrow: 45.988373
      m_minScale: 0.7
      m_maxScale: 1.1
      m_rndScaleInfluence: 0
      m_extParam: 
      m_protoIdx: 1
    m_spawnCriteria:
    - m_name: 
      m_checkType: 1
      m_virginTerrain: 1
      m_checkHeight: 1
      m_minHeight: 1.2
      m_maxHeight: 962
      m_heightFitness:
        serializedVersion: 2
        m_Curve:
        - serializedVersion: 3
          time: 0
          value: 1
          inSlope: 0
          outSlope: 0
          tangentMode: 0
          weightedMode: 0
          inWeight: 0.33333334
          outWeight: 0.33333334
        - serializedVersion: 3
          time: 1
          value: 0
          inSlope: 0
          outSlope: 0
          tangentMode: 0
          weightedMode: 0
          inWeight: 0.33333334
          outWeight: 0.33333334
        m_PreInfinity: 2
        m_PostInfinity: 2
        m_RotationOrder: 4
      m_checkSlope: 1
      m_minSlope: 0
      m_maxSlope: 30
      m_slopeFitness:
        serializedVersion: 2
        m_Curve:
        - serializedVersion: 3
          time: 0
          value: 1
          inSlope: 0
          outSlope: 0
          tangentMode: 0
          weightedMode: 0
          inWeight: 0.33333334
          outWeight: 0.33333334
        - serializedVersion: 3
          time: 1
          value: 0
          inSlope: 0
          outSlope: 0
          tangentMode: 0
          weightedMode: 0
          inWeight: 0.33333334
          outWeight: 0.33333334
        m_PreInfinity: 2
        m_PostInfinity: 2
        m_RotationOrder: 4
      m_checkProximity: 0
      m_proximityTag: 
      m_minProximity: 0
      m_maxProximity: 100
      m_proximityFitness:
        serializedVersion: 2
        m_Curve:
        - serializedVersion: 3
          time: 0
          value: 1
          inSlope: 0
          outSlope: 0
          tangentMode: 0
          weightedMode: 0
          inWeight: 0.33333334
          outWeight: 0.33333334
        - serializedVersion: 3
          time: 0.3
          value: 0.2
          inSlope: 0
          outSlope: 0
          tangentMode: 0
          weightedMode: 0
          inWeight: 0.33333334
          outWeight: 0.33333334
        - serializedVersion: 3
          time: 1
          value: 0
          inSlope: 0
          outSlope: 0
          tangentMode: 0
          weightedMode: 0
          inWeight: 0.33333334
          outWeight: 0.33333334
        m_PreInfinity: 2
        m_PostInfinity: 2
        m_RotationOrder: 4
      m_checkTexture: 0
      m_matchingTextures: '!3'
      m_isActive: 1
    m_spawnExtensions: []
  - m_name: Tree 3
    m_desktopPrefab: {fileID: 1261850675674356, guid: 9a3ff19ede49d1b4c80a66ee41f46ac6,
      type: 2}
    m_desktopPrefabFileName: Conifer_Desktop.spm
    m_mobilePrefab: {fileID: 1261850675674356, guid: 9a3ff19ede49d1b4c80a66ee41f46ac6,
      type: 2}
    m_mobilePrefabFileName: Conifer_Desktop.spm
    m_bendFactor: 0
    m_healthyColour: {r: 1, g: 1, b: 1, a: 1}
    m_dryColour: {r: 1, g: 1, b: 1, a: 1}
    m_dna:
      m_width: 13.559455
      m_height: 30.658916
      m_boundsRadius: 3.3898637
      m_seedThrow: 45.988373
      m_minScale: 0.7
      m_maxScale: 1.1
      m_rndScaleInfluence: 0
      m_extParam: 
      m_protoIdx: 1
    m_spawnCriteria:
    - m_name: 
      m_checkType: 1
      m_virginTerrain: 1
      m_checkHeight: 1
      m_minHeight: 1.2
      m_maxHeight: 962
      m_heightFitness:
        serializedVersion: 2
        m_Curve:
        - serializedVersion: 3
          time: 0
          value: 1
          inSlope: 0
          outSlope: 0
          tangentMode: 0
          weightedMode: 0
          inWeight: 0.33333334
          outWeight: 0.33333334
        - serializedVersion: 3
          time: 1
          value: 0
          inSlope: 0
          outSlope: 0
          tangentMode: 0
          weightedMode: 0
          inWeight: 0.33333334
          outWeight: 0.33333334
        m_PreInfinity: 2
        m_PostInfinity: 2
        m_RotationOrder: 4
      m_checkSlope: 1
      m_minSlope: 0
      m_maxSlope: 30
      m_slopeFitness:
        serializedVersion: 2
        m_Curve:
        - serializedVersion: 3
          time: 0
          value: 1
          inSlope: 0
          outSlope: 0
          tangentMode: 0
          weightedMode: 0
          inWeight: 0.33333334
          outWeight: 0.33333334
        - serializedVersion: 3
          time: 1
          value: 0
          inSlope: 0
          outSlope: 0
          tangentMode: 0
          weightedMode: 0
          inWeight: 0.33333334
          outWeight: 0.33333334
        m_PreInfinity: 2
        m_PostInfinity: 2
        m_RotationOrder: 4
      m_checkProximity: 0
      m_proximityTag: 
      m_minProximity: 0
      m_maxProximity: 100
      m_proximityFitness:
        serializedVersion: 2
        m_Curve:
        - serializedVersion: 3
          time: 0
          value: 1
          inSlope: 0
          outSlope: 0
          tangentMode: 0
          weightedMode: 0
          inWeight: 0.33333334
          outWeight: 0.33333334
        - serializedVersion: 3
          time: 0.3
          value: 0.2
          inSlope: 0
          outSlope: 0
          tangentMode: 0
          weightedMode: 0
          inWeight: 0.33333334
          outWeight: 0.33333334
        - serializedVersion: 3
          time: 1
          value: 0
          inSlope: 0
          outSlope: 0
          tangentMode: 0
          weightedMode: 0
          inWeight: 0.33333334
          outWeight: 0.33333334
        m_PreInfinity: 2
        m_PostInfinity: 2
        m_RotationOrder: 4
      m_checkTexture: 0
      m_matchingTextures: '!3'
      m_isActive: 1
    m_spawnExtensions: []
  m_gameObjectPrototypes:
  - m_name: Rock Pile 1
    m_instances:
    - m_name: rock1 lod
      m_desktopPrefab: {fileID: 100006, guid: 4aadbe033cb06c64c9e4e760b1aef0fb, type: 2}
      m_desktopPrefabFileName: rock1 lod.prefab
      m_mobilePrefab: {fileID: 100006, guid: 4aadbe033cb06c64c9e4e760b1aef0fb, type: 2}
      m_mobilePrefabFileName: rock1 lod.prefab
      m_minInstances: 1
      m_maxInstances: 1
      m_failureRate: 0
      m_minSpawnOffsetX: 2.9544678
      m_maxSpawnOffsetX: 2.9544678
      m_minSpawnOffsetY: 0.21
      m_maxSpawnOffsetY: 0.21
      m_minSpawnOffsetZ: -1.4521484
      m_maxSpawnOffsetZ: -1.4521484
      m_rotateToSlope: 0
      m_minRotationOffsetX: 0
      m_maxRotationOffsetX: 0
      m_minRotationOffsetY: 0
      m_maxRotationOffsetY: 0
      m_minRotationOffsetZ: 0
      m_maxRotationOffsetZ: 0
      m_useParentScale: 0
      m_minScale: 1
      m_maxScale: 1
      m_scaleByDistance:
        serializedVersion: 2
        m_Curve:
        - serializedVersion: 3
          time: 0
          value: 1
          inSlope: 0
          outSlope: 0
          tangentMode: 0
          weightedMode: 0
          inWeight: 0.33333334
          outWeight: 0.33333334
        - serializedVersion: 3
          time: 1
          value: 1
          inSlope: 0
          outSlope: 0
          tangentMode: 0
          weightedMode: 0
          inWeight: 0.33333334
          outWeight: 0.33333334
        m_PreInfinity: 2
        m_PostInfinity: 2
        m_RotationOrder: 4
      m_localBounds: 4.2509766
      m_virginTerrain: 0
      m_extParam: 
    - m_name: rock1 lod
      m_desktopPrefab: {fileID: 100006, guid: 4aadbe033cb06c64c9e4e760b1aef0fb, type: 2}
      m_desktopPrefabFileName: rock1 lod.prefab
      m_mobilePrefab: {fileID: 100006, guid: 4aadbe033cb06c64c9e4e760b1aef0fb, type: 2}
      m_mobilePrefabFileName: rock1 lod.prefab
      m_minInstances: 1
      m_maxInstances: 1
      m_failureRate: 0
      m_minSpawnOffsetX: 3.2052002
      m_maxSpawnOffsetX: 3.2052002
      m_minSpawnOffsetY: -0.29
      m_maxSpawnOffsetY: -0.29
      m_minSpawnOffsetZ: 3.9387512
      m_maxSpawnOffsetZ: 3.9387512
      m_rotateToSlope: 0
      m_minRotationOffsetX: 0
      m_maxRotationOffsetX: 0
      m_minRotationOffsetY: 0
      m_maxRotationOffsetY: 0
      m_minRotationOffsetZ: 0
      m_maxRotationOffsetZ: 0
      m_useParentScale: 0
      m_minScale: 1
      m_maxScale: 1
      m_scaleByDistance:
        serializedVersion: 2
        m_Curve:
        - serializedVersion: 3
          time: 0
          value: 1
          inSlope: 0
          outSlope: 0
          tangentMode: 0
          weightedMode: 0
          inWeight: 0.33333334
          outWeight: 0.33333334
        - serializedVersion: 3
          time: 1
          value: 1
          inSlope: 0
          outSlope: 0
          tangentMode: 0
          weightedMode: 0
          inWeight: 0.33333334
          outWeight: 0.33333334
        m_PreInfinity: 2
        m_PostInfinity: 2
        m_RotationOrder: 4
      m_localBounds: 4.2509766
      m_virginTerrain: 0
      m_extParam: 
    - m_name: rock1 lod
      m_desktopPrefab: {fileID: 100006, guid: 4aadbe033cb06c64c9e4e760b1aef0fb, type: 2}
      m_desktopPrefabFileName: rock1 lod.prefab
      m_mobilePrefab: {fileID: 100006, guid: 4aadbe033cb06c64c9e4e760b1aef0fb, type: 2}
      m_mobilePrefabFileName: rock1 lod.prefab
      m_minInstances: 1
      m_maxInstances: 1
      m_failureRate: 0
      m_minSpawnOffsetX: 1.588501
      m_maxSpawnOffsetX: 1.588501
      m_minSpawnOffsetY: -0.29
      m_maxSpawnOffsetY: -0.29
      m_minSpawnOffsetZ: 2.3684082
      m_maxSpawnOffsetZ: 2.3684082
      m_rotateToSlope: 0
      m_minRotationOffsetX: 0
      m_maxRotationOffsetX: 0
      m_minRotationOffsetY: 0
      m_maxRotationOffsetY: 0
      m_minRotationOffsetZ: 0
      m_maxRotationOffsetZ: 0
      m_useParentScale: 0
      m_minScale: 1
      m_maxScale: 1
      m_scaleByDistance:
        serializedVersion: 2
        m_Curve:
        - serializedVersion: 3
          time: 0
          value: 1
          inSlope: 0
          outSlope: 0
          tangentMode: 0
          weightedMode: 0
          inWeight: 0.33333334
          outWeight: 0.33333334
        - serializedVersion: 3
          time: 1
          value: 1
          inSlope: 0
          outSlope: 0
          tangentMode: 0
          weightedMode: 0
          inWeight: 0.33333334
          outWeight: 0.33333334
        m_PreInfinity: 2
        m_PostInfinity: 2
        m_RotationOrder: 4
      m_localBounds: 4.2509766
      m_virginTerrain: 0
      m_extParam: 
    - m_name: rock2 lod
      m_desktopPrefab: {fileID: 100006, guid: 7c81b71b0bd8b3e45be619007a95d32d, type: 2}
      m_desktopPrefabFileName: rock2 lod.prefab
      m_mobilePrefab: {fileID: 100006, guid: 7c81b71b0bd8b3e45be619007a95d32d, type: 2}
      m_mobilePrefabFileName: rock2 lod.prefab
      m_minInstances: 1
      m_maxInstances: 1
      m_failureRate: 0
      m_minSpawnOffsetX: -1.7714844
      m_maxSpawnOffsetX: -1.7714844
      m_minSpawnOffsetY: 0.42
      m_maxSpawnOffsetY: 0.42
      m_minSpawnOffsetZ: -7.701248
      m_maxSpawnOffsetZ: -7.701248
      m_rotateToSlope: 0
      m_minRotationOffsetX: 0
      m_maxRotationOffsetX: 0
      m_minRotationOffsetY: 0
      m_maxRotationOffsetY: 0
      m_minRotationOffsetZ: 84.423065
      m_maxRotationOffsetZ: 84.423065
      m_useParentScale: 0
      m_minScale: 1
      m_maxScale: 1
      m_scaleByDistance:
        serializedVersion: 2
        m_Curve:
        - serializedVersion: 3
          time: 0
          value: 1
          inSlope: 0
          outSlope: 0
          tangentMode: 0
          weightedMode: 0
          inWeight: 0.33333334
          outWeight: 0.33333334
        - serializedVersion: 3
          time: 1
          value: 1
          inSlope: 0
          outSlope: 0
          tangentMode: 0
          weightedMode: 0
          inWeight: 0.33333334
          outWeight: 0.33333334
        m_PreInfinity: 2
        m_PostInfinity: 2
        m_RotationOrder: 4
      m_localBounds: 6.0095215
      m_virginTerrain: 0
      m_extParam: 
    - m_name: rock2 lod
      m_desktopPrefab: {fileID: 100006, guid: 7c81b71b0bd8b3e45be619007a95d32d, type: 2}
      m_desktopPrefabFileName: rock2 lod.prefab
      m_mobilePrefab: {fileID: 100006, guid: 7c81b71b0bd8b3e45be619007a95d32d, type: 2}
      m_mobilePrefabFileName: rock2 lod.prefab
      m_minInstances: 1
      m_maxInstances: 1
      m_failureRate: 0
      m_minSpawnOffsetX: 4.1984863
      m_maxSpawnOffsetX: 4.1984863
      m_minSpawnOffsetY: 2.48
      m_maxSpawnOffsetY: 2.48
      m_minSpawnOffsetZ: -4.181244
      m_maxSpawnOffsetZ: -4.181244
      m_rotateToSlope: 0
      m_minRotationOffsetX: 285.52554
      m_maxRotationOffsetX: 285.52554
      m_minRotationOffsetY: 0
      m_maxRotationOffsetY: 0
      m_minRotationOffsetZ: 0
      m_maxRotationOffsetZ: 0
      m_useParentScale: 0
      m_minScale: 1
      m_maxScale: 1
      m_scaleByDistance:
        serializedVersion: 2
        m_Curve:
        - serializedVersion: 3
          time: 0
          value: 1
          inSlope: 0
          outSlope: 0
          tangentMode: 0
          weightedMode: 0
          inWeight: 0.33333334
          outWeight: 0.33333334
        - serializedVersion: 3
          time: 1
          value: 1
          inSlope: 0
          outSlope: 0
          tangentMode: 0
          weightedMode: 0
          inWeight: 0.33333334
          outWeight: 0.33333334
        m_PreInfinity: 2
        m_PostInfinity: 2
        m_RotationOrder: 4
      m_localBounds: 6.442627
      m_virginTerrain: 0
      m_extParam: 
    - m_name: rock1 lod
      m_desktopPrefab: {fileID: 100006, guid: 4aadbe033cb06c64c9e4e760b1aef0fb, type: 2}
      m_desktopPrefabFileName: rock1 lod.prefab
      m_mobilePrefab: {fileID: 100006, guid: 4aadbe033cb06c64c9e4e760b1aef0fb, type: 2}
      m_mobilePrefabFileName: rock1 lod.prefab
      m_minInstances: 1
      m_maxInstances: 1
      m_failureRate: 0
      m_minSpawnOffsetX: 2.0784912
      m_maxSpawnOffsetX: 2.0784912
      m_minSpawnOffsetY: -1.35
      m_maxSpawnOffsetY: -1.35
      m_minSpawnOffsetZ: 7.498749
      m_maxSpawnOffsetZ: 7.498749
      m_rotateToSlope: 0
      m_minRotationOffsetX: 333.0351
      m_maxRotationOffsetX: 333.0351
      m_minRotationOffsetY: 353.6383
      m_maxRotationOffsetY: 353.6383
      m_minRotationOffsetZ: 357.7948
      m_maxRotationOffsetZ: 357.7948
      m_useParentScale: 0
      m_minScale: 1.6655099
      m_maxScale: 1.6655099
      m_scaleByDistance:
        serializedVersion: 2
        m_Curve:
        - serializedVersion: 3
          time: 0
          value: 1
          inSlope: 0
          outSlope: 0
          tangentMode: 0
          weightedMode: 0
          inWeight: 0.33333334
          outWeight: 0.33333334
        - serializedVersion: 3
          time: 1
          value: 1
          inSlope: 0
          outSlope: 0
          tangentMode: 0
          weightedMode: 0
          inWeight: 0.33333334
          outWeight: 0.33333334
        m_PreInfinity: 2
        m_PostInfinity: 2
        m_RotationOrder: 4
      m_localBounds: 10.314713
      m_virginTerrain: 0
      m_extParam: 
    - m_name: rock1 lod
      m_desktopPrefab: {fileID: 100006, guid: 4aadbe033cb06c64c9e4e760b1aef0fb, type: 2}
      m_desktopPrefabFileName: rock1 lod.prefab
      m_mobilePrefab: {fileID: 100006, guid: 4aadbe033cb06c64c9e4e760b1aef0fb, type: 2}
      m_mobilePrefabFileName: rock1 lod.prefab
      m_minInstances: 1
      m_maxInstances: 1
      m_failureRate: 0
      m_minSpawnOffsetX: 0.52856445
      m_maxSpawnOffsetX: 0.52856445
      m_minSpawnOffsetY: 1.09
      m_maxSpawnOffsetY: 1.09
      m_minSpawnOffsetZ: -6.8012543
      m_maxSpawnOffsetZ: -6.8012543
      m_rotateToSlope: 0
      m_minRotationOffsetX: 0
      m_maxRotationOffsetX: 0
      m_minRotationOffsetY: 28.606277
      m_maxRotationOffsetY: 28.606277
      m_minRotationOffsetZ: 16.942902
      m_maxRotationOffsetZ: 16.942902
      m_useParentScale: 0
      m_minScale: 1
      m_maxScale: 1
      m_scaleByDistance:
        serializedVersion: 2
        m_Curve:
        - serializedVersion: 3
          time: 0
          value: 1
          inSlope: 0
          outSlope: 0
          tangentMode: 0
          weightedMode: 0
          inWeight: 0.33333334
          outWeight: 0.33333334
        - serializedVersion: 3
          time: 1
          value: 1
          inSlope: 0
          outSlope: 0
          tangentMode: 0
          weightedMode: 0
          inWeight: 0.33333334
          outWeight: 0.33333334
        m_PreInfinity: 2
        m_PostInfinity: 2
        m_RotationOrder: 4
      m_localBounds: 6.6811523
      m_virginTerrain: 0
      m_extParam: 
    - m_name: rock2 lod
      m_desktopPrefab: {fileID: 100006, guid: 7c81b71b0bd8b3e45be619007a95d32d, type: 2}
      m_desktopPrefabFileName: rock2 lod.prefab
      m_mobilePrefab: {fileID: 100006, guid: 7c81b71b0bd8b3e45be619007a95d32d, type: 2}
      m_mobilePrefabFileName: rock2 lod.prefab
      m_minInstances: 1
      m_maxInstances: 1
      m_failureRate: 0
      m_minSpawnOffsetX: 2.338501
      m_maxSpawnOffsetX: 2.338501
      m_minSpawnOffsetY: 1.31
      m_maxSpawnOffsetY: 1.31
      m_minSpawnOffsetZ: -7.7712555
      m_maxSpawnOffsetZ: -7.7712555
      m_rotateToSlope: 0
      m_minRotationOffsetX: 0
      m_maxRotationOffsetX: 0
      m_minRotationOffsetY: 181.98425
      m_maxRotationOffsetY: 181.98425
      m_minRotationOffsetZ: 0
      m_maxRotationOffsetZ: 0
      m_useParentScale: 0
      m_minScale: 1
      m_maxScale: 1
      m_scaleByDistance:
        serializedVersion: 2
        m_Curve:
        - serializedVersion: 3
          time: 0
          value: 1
          inSlope: 0
          outSlope: 0
          tangentMode: 0
          weightedMode: 0
          inWeight: 0.33333334
          outWeight: 0.33333334
        - serializedVersion: 3
          time: 1
          value: 1
          inSlope: 0
          outSlope: 0
          tangentMode: 0
          weightedMode: 0
          inWeight: 0.33333334
          outWeight: 0.33333334
        m_PreInfinity: 2
        m_PostInfinity: 2
        m_RotationOrder: 4
      m_localBounds: 4.307617
      m_virginTerrain: 0
      m_extParam: 
    - m_name: rock1 lod
      m_desktopPrefab: {fileID: 100006, guid: 4aadbe033cb06c64c9e4e760b1aef0fb, type: 2}
      m_desktopPrefabFileName: rock1 lod.prefab
      m_mobilePrefab: {fileID: 100006, guid: 4aadbe033cb06c64c9e4e760b1aef0fb, type: 2}
      m_mobilePrefabFileName: rock1 lod.prefab
      m_minInstances: 1
      m_maxInstances: 1
      m_failureRate: 0
      m_minSpawnOffsetX: 3.7034912
      m_maxSpawnOffsetX: 3.7034912
      m_minSpawnOffsetY: 1.32
      m_maxSpawnOffsetY: 1.32
      m_minSpawnOffsetZ: -6.0590363
      m_maxSpawnOffsetZ: -6.0590363
      m_rotateToSlope: 0
      m_minRotationOffsetX: 0
      m_maxRotationOffsetX: 0
      m_minRotationOffsetY: 0
      m_maxRotationOffsetY: 0
      m_minRotationOffsetZ: 0
      m_maxRotationOffsetZ: 0
      m_useParentScale: 0
      m_minScale: 1
      m_maxScale: 1
      m_scaleByDistance:
        serializedVersion: 2
        m_Curve:
        - serializedVersion: 3
          time: 0
          value: 1
          inSlope: 0
          outSlope: 0
          tangentMode: 0
          weightedMode: 0
          inWeight: 0.33333334
          outWeight: 0.33333334
        - serializedVersion: 3
          time: 1
          value: 1
          inSlope: 0
          outSlope: 0
          tangentMode: 0
          weightedMode: 0
          inWeight: 0.33333334
          outWeight: 0.33333334
        m_PreInfinity: 2
        m_PostInfinity: 2
        m_RotationOrder: 4
      m_localBounds: 4.2509766
      m_virginTerrain: 0
      m_extParam: 
    - m_name: rock1 lod
      m_desktopPrefab: {fileID: 100006, guid: 4aadbe033cb06c64c9e4e760b1aef0fb, type: 2}
      m_desktopPrefabFileName: rock1 lod.prefab
      m_mobilePrefab: {fileID: 100006, guid: 4aadbe033cb06c64c9e4e760b1aef0fb, type: 2}
      m_mobilePrefabFileName: rock1 lod.prefab
      m_minInstances: 1
      m_maxInstances: 1
      m_failureRate: 0
      m_minSpawnOffsetX: -0.4215088
      m_maxSpawnOffsetX: -0.4215088
      m_minSpawnOffsetY: -0.18
      m_maxSpawnOffsetY: -0.18
      m_minSpawnOffsetZ: -3.5212555
      m_maxSpawnOffsetZ: -3.5212555
      m_rotateToSlope: 0
      m_minRotationOffsetX: 0
      m_maxRotationOffsetX: 0
      m_minRotationOffsetY: 0
      m_maxRotationOffsetY: 0
      m_minRotationOffsetZ: 0
      m_maxRotationOffsetZ: 0
      m_useParentScale: 0
      m_minScale: 0.4988742
      m_maxScale: 0.4988742
      m_scaleByDistance:
        serializedVersion: 2
        m_Curve:
        - serializedVersion: 3
          time: 0
          value: 1
          inSlope: 0
          outSlope: 0
          tangentMode: 0
          weightedMode: 0
          inWeight: 0.33333334
          outWeight: 0.33333334
        - serializedVersion: 3
          time: 1
          value: 1
          inSlope: 0
          outSlope: 0
          tangentMode: 0
          weightedMode: 0
          inWeight: 0.33333334
          outWeight: 0.33333334
        m_PreInfinity: 2
        m_PostInfinity: 2
        m_RotationOrder: 4
      m_localBounds: 2.120697
      m_virginTerrain: 0
      m_extParam: 
    - m_name: rock2 lod
      m_desktopPrefab: {fileID: 100006, guid: 7c81b71b0bd8b3e45be619007a95d32d, type: 2}
      m_desktopPrefabFileName: rock2 lod.prefab
      m_mobilePrefab: {fileID: 100006, guid: 7c81b71b0bd8b3e45be619007a95d32d, type: 2}
      m_mobilePrefabFileName: rock2 lod.prefab
      m_minInstances: 1
      m_maxInstances: 1
      m_failureRate: 0
      m_minSpawnOffsetX: 2.5684814
      m_maxSpawnOffsetX: 2.5684814
      m_minSpawnOffsetY: 0.37
      m_maxSpawnOffsetY: 0.37
      m_minSpawnOffsetZ: -3.831253
      m_maxSpawnOffsetZ: -3.831253
      m_rotateToSlope: 0
      m_minRotationOffsetX: 0
      m_maxRotationOffsetX: 0
      m_minRotationOffsetY: 0
      m_maxRotationOffsetY: 0
      m_minRotationOffsetZ: 90.693054
      m_maxRotationOffsetZ: 90.693054
      m_useParentScale: 0
      m_minScale: 1
      m_maxScale: 1
      m_scaleByDistance:
        serializedVersion: 2
        m_Curve:
        - serializedVersion: 3
          time: 0
          value: 1
          inSlope: 0
          outSlope: 0
          tangentMode: 0
          weightedMode: 0
          inWeight: 0.33333334
          outWeight: 0.33333334
        - serializedVersion: 3
          time: 1
          value: 1
          inSlope: 0
          outSlope: 0
          tangentMode: 0
          weightedMode: 0
          inWeight: 0.33333334
          outWeight: 0.33333334
        m_PreInfinity: 2
        m_PostInfinity: 2
        m_RotationOrder: 4
      m_localBounds: 5.680176
      m_virginTerrain: 0
      m_extParam: 
    - m_name: rock2 lod
      m_desktopPrefab: {fileID: 100006, guid: 7c81b71b0bd8b3e45be619007a95d32d, type: 2}
      m_desktopPrefabFileName: rock2 lod.prefab
      m_mobilePrefab: {fileID: 100006, guid: 7c81b71b0bd8b3e45be619007a95d32d, type: 2}
      m_mobilePrefabFileName: rock2 lod.prefab
      m_minInstances: 1
      m_maxInstances: 1
      m_failureRate: 0
      m_minSpawnOffsetX: 8.648682
      m_maxSpawnOffsetX: 8.648682
      m_minSpawnOffsetY: -0.34
      m_maxSpawnOffsetY: -0.34
      m_minSpawnOffsetZ: -0.20124817
      m_maxSpawnOffsetZ: -0.20124817
      m_rotateToSlope: 0
      m_minRotationOffsetX: 273.14822
      m_maxRotationOffsetX: 273.14822
      m_minRotationOffsetY: 180
      m_maxRotationOffsetY: 180
      m_minRotationOffsetZ: 180
      m_maxRotationOffsetZ: 180
      m_useParentScale: 0
      m_minScale: 1
      m_maxScale: 1
      m_scaleByDistance:
        serializedVersion: 2
        m_Curve:
        - serializedVersion: 3
          time: 0
          value: 1
          inSlope: 0
          outSlope: 0
          tangentMode: 0
          weightedMode: 0
          inWeight: 0.33333334
          outWeight: 0.33333334
        - serializedVersion: 3
          time: 1
          value: 1
          inSlope: 0
          outSlope: 0
          tangentMode: 0
          weightedMode: 0
          inWeight: 0.33333334
          outWeight: 0.33333334
        m_PreInfinity: 2
        m_PostInfinity: 2
        m_RotationOrder: 4
      m_localBounds: 5.830414
      m_virginTerrain: 0
      m_extParam: 
    - m_name: rock3 lod
      m_desktopPrefab: {fileID: 100006, guid: 8aa0c3769e7007d47a4e4bf4ecb74ad8, type: 2}
      m_desktopPrefabFileName: rock3 lod.prefab
      m_mobilePrefab: {fileID: 100006, guid: 8aa0c3769e7007d47a4e4bf4ecb74ad8, type: 2}
      m_mobilePrefabFileName: rock3 lod.prefab
      m_minInstances: 1
      m_maxInstances: 1
      m_failureRate: 0
      m_minSpawnOffsetX: 2.708496
      m_maxSpawnOffsetX: 2.708496
      m_minSpawnOffsetY: 0.99
      m_maxSpawnOffsetY: 0.99
      m_minSpawnOffsetZ: 1.2487488
      m_maxSpawnOffsetZ: 1.2487488
      m_rotateToSlope: 0
      m_minRotationOffsetX: 0
      m_maxRotationOffsetX: 0
      m_minRotationOffsetY: 0
      m_maxRotationOffsetY: 0
      m_minRotationOffsetZ: 0
      m_maxRotationOffsetZ: 0
      m_useParentScale: 0
      m_minScale: 2.0029526
      m_maxScale: 2.0029526
      m_scaleByDistance:
        serializedVersion: 2
        m_Curve:
        - serializedVersion: 3
          time: 0
          value: 1
          inSlope: 0
          outSlope: 0
          tangentMode: 0
          weightedMode: 0
          inWeight: 0.33333334
          outWeight: 0.33333334
        - serializedVersion: 3
          time: 1
          value: 1
          inSlope: 0
          outSlope: 0
          tangentMode: 0
          weightedMode: 0
          inWeight: 0.33333334
          outWeight: 0.33333334
        m_PreInfinity: 2
        m_PostInfinity: 2
        m_RotationOrder: 4
      m_localBounds: 8.624512
      m_virginTerrain: 0
      m_extParam: 
    - m_name: rock1 lod
      m_desktopPrefab: {fileID: 100006, guid: 4aadbe033cb06c64c9e4e760b1aef0fb, type: 2}
      m_desktopPrefabFileName: rock1 lod.prefab
      m_mobilePrefab: {fileID: 100006, guid: 4aadbe033cb06c64c9e4e760b1aef0fb, type: 2}
      m_mobilePrefabFileName: rock1 lod.prefab
      m_minInstances: 1
      m_maxInstances: 1
      m_failureRate: 0
      m_minSpawnOffsetX: 2.168579
      m_maxSpawnOffsetX: 2.168579
      m_minSpawnOffsetY: -0.04
      m_maxSpawnOffsetY: -0.04
      m_minSpawnOffsetZ: -12.931244
      m_maxSpawnOffsetZ: -12.931244
      m_rotateToSlope: 0
      m_minRotationOffsetX: 0
      m_maxRotationOffsetX: 0
      m_minRotationOffsetY: 0
      m_maxRotationOffsetY: 0
      m_minRotationOffsetZ: 298.81357
      m_maxRotationOffsetZ: 298.81357
      m_useParentScale: 0
      m_minScale: 0.41369006
      m_maxScale: 0.41369006
      m_scaleByDistance:
        serializedVersion: 2
        m_Curve:
        - serializedVersion: 3
          time: 0
          value: 1
          inSlope: 0
          outSlope: 0
          tangentMode: 0
          weightedMode: 0
          inWeight: 0.33333334
          outWeight: 0.33333334
        - serializedVersion: 3
          time: 1
          value: 1
          inSlope: 0
          outSlope: 0
          tangentMode: 0
          weightedMode: 0
          inWeight: 0.33333334
          outWeight: 0.33333334
        m_PreInfinity: 2
        m_PostInfinity: 2
        m_RotationOrder: 4
      m_localBounds: 2.3774414
      m_virginTerrain: 0
      m_extParam: 
    - m_name: rock3 lod
      m_desktopPrefab: {fileID: 100006, guid: 8aa0c3769e7007d47a4e4bf4ecb74ad8, type: 2}
      m_desktopPrefabFileName: rock3 lod.prefab
      m_mobilePrefab: {fileID: 100006, guid: 8aa0c3769e7007d47a4e4bf4ecb74ad8, type: 2}
      m_mobilePrefabFileName: rock3 lod.prefab
      m_minInstances: 1
      m_maxInstances: 1
      m_failureRate: 0
      m_minSpawnOffsetX: -7.4625244
      m_maxSpawnOffsetX: -7.4625244
      m_minSpawnOffsetY: 0.3
      m_maxSpawnOffsetY: 0.3
      m_minSpawnOffsetZ: -1.0106964
      m_maxSpawnOffsetZ: -1.0106964
      m_rotateToSlope: 0
      m_minRotationOffsetX: 75.8537
      m_maxRotationOffsetX: 75.8537
      m_minRotationOffsetY: 45.26854
      m_maxRotationOffsetY: 45.26854
      m_minRotationOffsetZ: 0.037139893
      m_maxRotationOffsetZ: 0.037139893
      m_useParentScale: 0
      m_minScale: 1
      m_maxScale: 1
      m_scaleByDistance:
        serializedVersion: 2
        m_Curve:
        - serializedVersion: 3
          time: 0
          value: 1
          inSlope: 0
          outSlope: 0
          tangentMode: 0
          weightedMode: 0
          inWeight: 0.33333334
          outWeight: 0.33333334
        - serializedVersion: 3
          time: 1
          value: 1
          inSlope: 0
          outSlope: 0
          tangentMode: 0
          weightedMode: 0
          inWeight: 0.33333334
          outWeight: 0.33333334
        m_PreInfinity: 2
        m_PostInfinity: 2
        m_RotationOrder: 4
      m_localBounds: 6.5507812
      m_virginTerrain: 0
      m_extParam: 
    - m_name: rock1 lod
      m_desktopPrefab: {fileID: 100006, guid: 4aadbe033cb06c64c9e4e760b1aef0fb, type: 2}
      m_desktopPrefabFileName: rock1 lod.prefab
      m_mobilePrefab: {fileID: 100006, guid: 4aadbe033cb06c64c9e4e760b1aef0fb, type: 2}
      m_mobilePrefabFileName: rock1 lod.prefab
      m_minInstances: 1
      m_maxInstances: 1
      m_failureRate: 0
      m_minSpawnOffsetX: -5.8114014
      m_maxSpawnOffsetX: -5.8114014
      m_minSpawnOffsetY: 0.32
      m_maxSpawnOffsetY: 0.32
      m_minSpawnOffsetZ: 12.665939
      m_maxSpawnOffsetZ: 12.665939
      m_rotateToSlope: 0
      m_minRotationOffsetX: 0
      m_maxRotationOffsetX: 0
      m_minRotationOffsetY: 0
      m_maxRotationOffsetY: 0
      m_minRotationOffsetZ: 35.709152
      m_maxRotationOffsetZ: 35.709152
      m_useParentScale: 0
      m_minScale: 0.53849113
      m_maxScale: 0.53849113
      m_scaleByDistance:
        serializedVersion: 2
        m_Curve:
        - serializedVersion: 3
          time: 0
          value: 1
          inSlope: 0
          outSlope: 0
          tangentMode: 0
          weightedMode: 0
          inWeight: 0.33333334
          outWeight: 0.33333334
        - serializedVersion: 3
          time: 1
          value: 1
          inSlope: 0
          outSlope: 0
          tangentMode: 0
          weightedMode: 0
          inWeight: 0.33333334
          outWeight: 0.33333334
        m_PreInfinity: 2
        m_PostInfinity: 2
        m_RotationOrder: 4
      m_localBounds: 3.1835938
      m_virginTerrain: 0
      m_extParam: 
    - m_name: rock1 lod
      m_desktopPrefab: {fileID: 100006, guid: 4aadbe033cb06c64c9e4e760b1aef0fb, type: 2}
      m_desktopPrefabFileName: rock1 lod.prefab
      m_mobilePrefab: {fileID: 100006, guid: 4aadbe033cb06c64c9e4e760b1aef0fb, type: 2}
      m_mobilePrefabFileName: rock1 lod.prefab
      m_minInstances: 1
      m_maxInstances: 1
      m_failureRate: 0
      m_minSpawnOffsetX: 5.5285645
      m_maxSpawnOffsetX: 5.5285645
      m_minSpawnOffsetY: -0.41
      m_maxSpawnOffsetY: -0.41
      m_minSpawnOffsetZ: -9.151245
      m_maxSpawnOffsetZ: -9.151245
      m_rotateToSlope: 0
      m_minRotationOffsetX: 28.687439
      m_maxRotationOffsetX: 28.687439
      m_minRotationOffsetY: 275.84985
      m_maxRotationOffsetY: 275.84985
      m_minRotationOffsetZ: 272.81564
      m_maxRotationOffsetZ: 272.81564
      m_useParentScale: 0
      m_minScale: 0.9457157
      m_maxScale: 0.9457157
      m_scaleByDistance:
        serializedVersion: 2
        m_Curve:
        - serializedVersion: 3
          time: 0
          value: 1
          inSlope: 0
          outSlope: 0
          tangentMode: 0
          weightedMode: 0
          inWeight: 0.33333334
          outWeight: 0.33333334
        - serializedVersion: 3
          time: 1
          value: 1
          inSlope: 0
          outSlope: 0
          tangentMode: 0
          weightedMode: 0
          inWeight: 0.33333334
          outWeight: 0.33333334
        m_PreInfinity: 2
        m_PostInfinity: 2
        m_RotationOrder: 4
      m_localBounds: 5.7561035
      m_virginTerrain: 0
      m_extParam: 
    - m_name: rock2 lod
      m_desktopPrefab: {fileID: 100006, guid: 7c81b71b0bd8b3e45be619007a95d32d, type: 2}
      m_desktopPrefabFileName: rock2 lod.prefab
      m_mobilePrefab: {fileID: 100006, guid: 7c81b71b0bd8b3e45be619007a95d32d, type: 2}
      m_mobilePrefabFileName: rock2 lod.prefab
      m_minInstances: 1
      m_maxInstances: 1
      m_failureRate: 0
      m_minSpawnOffsetX: 3.588501
      m_maxSpawnOffsetX: 3.588501
      m_minSpawnOffsetY: 3.24
      m_maxSpawnOffsetY: 3.24
      m_minSpawnOffsetZ: -1.1814575
      m_maxSpawnOffsetZ: -1.1814575
      m_rotateToSlope: 0
      m_minRotationOffsetX: 320.02692
      m_maxRotationOffsetX: 320.02692
      m_minRotationOffsetY: 343.08948
      m_maxRotationOffsetY: 343.08948
      m_minRotationOffsetZ: 359.9845
      m_maxRotationOffsetZ: 359.9845
      m_useParentScale: 0
      m_minScale: 0.55154043
      m_maxScale: 0.55154043
      m_scaleByDistance:
        serializedVersion: 2
        m_Curve:
        - serializedVersion: 3
          time: 0
          value: 1
          inSlope: 0
          outSlope: 0
          tangentMode: 0
          weightedMode: 0
          inWeight: 0.33333334
          outWeight: 0.33333334
        - serializedVersion: 3
          time: 1
          value: 1
          inSlope: 0
          outSlope: 0
          tangentMode: 0
          weightedMode: 0
          inWeight: 0.33333334
          outWeight: 0.33333334
        m_PreInfinity: 2
        m_PostInfinity: 2
        m_RotationOrder: 4
      m_localBounds: 4.1170807
      m_virginTerrain: 0
      m_extParam: 
    m_dna:
      m_width: 27.621033
      m_height: 11.312903
      m_boundsRadius: 27.621033
      m_seedThrow: 41.43155
      m_minScale: 1
      m_maxScale: 1
      m_rndScaleInfluence: 0
      m_extParam: 
      m_protoIdx: 0
    m_spawnCriteria:
    - m_name: 
      m_checkType: 1
      m_virginTerrain: 1
      m_checkHeight: 1
      m_minHeight: -2
      m_maxHeight: 962
      m_heightFitness:
        serializedVersion: 2
        m_Curve:
        - serializedVersion: 3
          time: 0
          value: 1
          inSlope: 0
          outSlope: 0
          tangentMode: 0
          weightedMode: 0
          inWeight: 0.33333334
          outWeight: 0.33333334
        - serializedVersion: 3
          time: 1
          value: 0
          inSlope: 0
          outSlope: 0
          tangentMode: 0
          weightedMode: 0
          inWeight: 0.33333334
          outWeight: 0.33333334
        m_PreInfinity: 2
        m_PostInfinity: 2
        m_RotationOrder: 4
      m_checkSlope: 1
      m_minSlope: 0
      m_maxSlope: 9.549489
      m_slopeFitness:
        serializedVersion: 2
        m_Curve:
        - serializedVersion: 3
          time: 0
          value: 1
          inSlope: 0
          outSlope: 0
          tangentMode: 0
          weightedMode: 0
          inWeight: 0.33333334
          outWeight: 0.33333334
        - serializedVersion: 3
          time: 1
          value: 0
          inSlope: 0
          outSlope: 0
          tangentMode: 0
          weightedMode: 0
          inWeight: 0.33333334
          outWeight: 0.33333334
        m_PreInfinity: 2
        m_PostInfinity: 2
        m_RotationOrder: 4
      m_checkProximity: 0
      m_proximityTag: 
      m_minProximity: 0
      m_maxProximity: 100
      m_proximityFitness:
        serializedVersion: 2
        m_Curve:
        - serializedVersion: 3
          time: 0
          value: 1
          inSlope: 0
          outSlope: 0
          tangentMode: 0
          weightedMode: 0
          inWeight: 0.33333334
          outWeight: 0.33333334
        - serializedVersion: 3
          time: 0.3
          value: 0.2
          inSlope: 0
          outSlope: 0
          tangentMode: 0
          weightedMode: 0
          inWeight: 0.33333334
          outWeight: 0.33333334
        - serializedVersion: 3
          time: 1
          value: 0
          inSlope: 0
          outSlope: 0
          tangentMode: 0
          weightedMode: 0
          inWeight: 0.33333334
          outWeight: 0.33333334
        m_PreInfinity: 2
        m_PostInfinity: 2
        m_RotationOrder: 4
      m_checkTexture: 0
      m_matchingTextures: '!3'
      m_isActive: 1
    m_spawnExtensions: []
  - m_name: Rock Pile 2
    m_instances:
    - m_name: rock3 lod
      m_desktopPrefab: {fileID: 100006, guid: 8aa0c3769e7007d47a4e4bf4ecb74ad8, type: 2}
      m_desktopPrefabFileName: rock3 lod.prefab
      m_mobilePrefab: {fileID: 100006, guid: 8aa0c3769e7007d47a4e4bf4ecb74ad8, type: 2}
      m_mobilePrefabFileName: rock3 lod.prefab
      m_minInstances: 1
      m_maxInstances: 10
      m_failureRate: 0
      m_minSpawnOffsetX: -15
      m_maxSpawnOffsetX: 15
      m_minSpawnOffsetY: -0.3
      m_maxSpawnOffsetY: -0.2
      m_minSpawnOffsetZ: -15
      m_maxSpawnOffsetZ: 15
      m_rotateToSlope: 0
      m_minRotationOffsetX: -180
      m_maxRotationOffsetX: 180
      m_minRotationOffsetY: -180
      m_maxRotationOffsetY: 180
      m_minRotationOffsetZ: -180
      m_maxRotationOffsetZ: 180
      m_useParentScale: 0
      m_minScale: 0.1
      m_maxScale: 2
      m_scaleByDistance:
        serializedVersion: 2
        m_Curve:
        - serializedVersion: 3
          time: 0
          value: 0.9999998
          inSlope: 0
          outSlope: 0
          tangentMode: 0
          weightedMode: 0
          inWeight: 0.33333334
          outWeight: 0.33333334
        - serializedVersion: 3
          time: 0.3598066
          value: 0.36398816
          inSlope: -1.5005469
          outSlope: -1.5005469
          tangentMode: 0
          weightedMode: 0
          inWeight: 0.33333334
          outWeight: 0.33333334
        - serializedVersion: 3
          time: 1
          value: -0.001267314
          inSlope: 0
          outSlope: 0
          tangentMode: 0
          weightedMode: 0
          inWeight: 0.33333334
          outWeight: 0.33333334
        m_PreInfinity: 2
        m_PostInfinity: 2
        m_RotationOrder: 4
      m_localBounds: 5
      m_virginTerrain: 0
      m_extParam: 
    m_dna:
      m_width: 8.624512
      m_height: 8.190178
      m_boundsRadius: 30
      m_seedThrow: 90
      m_minScale: 1
      m_maxScale: 1
      m_rndScaleInfluence: 0
      m_extParam: 
      m_protoIdx: 1
    m_spawnCriteria:
    - m_name: 
      m_checkType: 1
      m_virginTerrain: 1
      m_checkHeight: 1
      m_minHeight: -2
      m_maxHeight: 962
      m_heightFitness:
        serializedVersion: 2
        m_Curve:
        - serializedVersion: 3
          time: 0
          value: 1
          inSlope: 0
          outSlope: 0
          tangentMode: 0
          weightedMode: 0
          inWeight: 0.33333334
          outWeight: 0.33333334
        - serializedVersion: 3
          time: 1
          value: 0
          inSlope: 0
          outSlope: 0
          tangentMode: 0
          weightedMode: 0
          inWeight: 0.33333334
          outWeight: 0.33333334
        m_PreInfinity: 2
        m_PostInfinity: 2
        m_RotationOrder: 4
      m_checkSlope: 1
      m_minSlope: 0
      m_maxSlope: 17
      m_slopeFitness:
        serializedVersion: 2
        m_Curve:
        - serializedVersion: 3
          time: 0
          value: 1
          inSlope: 0
          outSlope: 0
          tangentMode: 0
          weightedMode: 0
          inWeight: 0.33333334
          outWeight: 0.33333334
        - serializedVersion: 3
          time: 1
          value: 0
          inSlope: 0
          outSlope: 0
          tangentMode: 0
          weightedMode: 0
          inWeight: 0.33333334
          outWeight: 0.33333334
        m_PreInfinity: 2
        m_PostInfinity: 2
        m_RotationOrder: 4
      m_checkProximity: 0
      m_proximityTag: 
      m_minProximity: 0
      m_maxProximity: 100
      m_proximityFitness:
        serializedVersion: 2
        m_Curve:
        - serializedVersion: 3
          time: 0
          value: 1
          inSlope: 0
          outSlope: 0
          tangentMode: 0
          weightedMode: 0
          inWeight: 0.33333334
          outWeight: 0.33333334
        - serializedVersion: 3
          time: 0.3
          value: 0.2
          inSlope: 0
          outSlope: 0
          tangentMode: 0
          weightedMode: 0
          inWeight: 0.33333334
          outWeight: 0.33333334
        - serializedVersion: 3
          time: 1
          value: 0
          inSlope: 0
          outSlope: 0
          tangentMode: 0
          weightedMode: 0
          inWeight: 0.33333334
          outWeight: 0.33333334
        m_PreInfinity: 2
        m_PostInfinity: 2
        m_RotationOrder: 4
      m_checkTexture: 0
      m_matchingTextures: '!3'
      m_isActive: 1
    m_spawnExtensions: []
